Stat 480 - cleaning data: messy 3 and 4
…
good practice: re-calculate the derived variabes to check for consistency.

Taking care of the split key

Plan: separate movie information from box office information

First idea: take all unique combinations of Movie and Distributor

movies <- box %>% select(Movie, Distributor) %>% unique()

Does that make a movie unique?

movies %>% count(Movie) %>% arrange(desc(n))

## # A tibble: 1,999 x 2
##    Movie                    n
##    <fct>                <int>
##  1 Beauty and the Beast     2
##  2 Breathe                  2
##  3 Girlhood                 2
##  4 Gold                     2
##  5 Mama Africa              2
##  6 Reset                    2
##  7 The Dinner               2
##  8 The Witness              2
##  9 Youth                    2
## 10 ’71                      1
## # ... with 1,989 more rows
…
Movie data

Now extract all the information for movies we first see:

movies <- box %>% filter(Week == firstSeen) %>% select(Movie, Distributor, Date, Week)
movies %>% arrange(desc(Week))

## # A tibble: 2,010 x 4
## # Groups:   Movie, Distributor [2,008]
##    Movie                    Distributor          Date        Week
##    <fct>                    <fct>                <fct>      <int>
##  1 The Fallen Idol          Rialto Pictures      2016-05-27  3472
##  2 The Third Man            Rialto Pictures      2015-06-26  3413
##  3 Bob le flambeur          Triumph Releasing    2018-01-05  3080
##  4 Elevator to the Gallows  Rialto Pictures      2016-08-05  2879
##  5 Shakespeare Wallah       Cohen Media Group    2017-11-10  2695
##  6 Marnie                   ""                   2015-05-22  2682
##  7 Band of Outsiders        Rialto Pictures      2016-05-06  2617
##  8 The Battle of Algiers    Rialto Pictures      2016-10-07  2560
##  9 Night of the Living Dead Walter Reade Organi… 2017-10-13  2559
## 10 The Lion in Winter       ""                   2016-12-16  2512
## # ... with 2,000 more rows
